{
    "columns": [
        {
            "name": "name",
            "title": "Settings.Attributes.name",
            "hidden": false
        },
        {
            "name": "description",
            "title": "Settings.Attributes.description",
            "hidden": false
        },
        {
            "name": "alternateName",
            "title": "Settings.Attributes.alternateName",
            "hidden": false
        },
        {
            "name": "identifier",
            "title": "Settings.Attributes.identifier",
            "hidden": true
        },
        {
            "name": "image",
            "title": "Settings.Attributes.image",
            "hidden": true
        },
        {
            "name": "url",
            "title": "Settings.Attributes.url",
            "hidden": true
        },
        {
            "name": "id",
            "formatter": "ButtonFormatter",
            "formatString":"(modal:edit)",
            "className": "text-center",
            "formatOptions": {
                "buttonContent": "<i class=\"far fa-edit text-indigo\"></i>",
                "buttonClass": "btn btn-default"
            }
        }
    ]
}