{
    "title": "Registrations.CurrentYear",
    "model": "StudentPeriodRegistrations",
    "searchExpression":"indexof(student/person/givenName, '${text}') ge 0 or indexof(student/person/familyName, '${text}') ge 0 or indexof(student/studentIdentifier, '${text}') ge 0 or indexof(registrationYear/alternateName, '${text}') ge 0",
    "selectable": true,
    "multipleSelect": true,
    "columns": [
        {
            "name":"id",
            "property": "id",
            "formatter": "ActionLinkFormatter",
            "actions" : [
                {
                    "title": "Registrations.ListTable.Preview.Registration",
                    "href": "#/registrations/${id}/"
                },
                {
                    "title": "Registrations.ListTable.Preview.Student",
                    "href": "#/students/${student}/"
                }
            ]
        },
        {
            "name": "student",
            "hidden" : "true"
        },
        {
            "name":"student/studentIdentifier",
            "property":"studentIdentifier",
            "title":"Students.StudentIdentifier.long"
        },
        {
            "name":"student/person/givenName",
            "property" : "givenName",
            "hidden" : "true"
        },
        {
            "name":"student/person/familyName",
            "property" : "familyName",
            "title":"Registrations.ListTable.Student.label",
            "formatter": "TemplateFormatter",
            "formatString": "${familyName} ${givenName}"
        },
        {
          "name": "student/studentStatus/alternateName",
          "property": "studentStatus",
          "title": "Registrations.StudentStatus",
          "formatter": "TranslationFormatter",
          "formatString": "StudentStatuses.${value}"
        },
        {
          "name":"student/studyProgram/abbreviation",
          "property": "studyProgram",
          "title":"Students.studyProgram"
        },
        {
            "name":"registrationDate",
            "title":"Registrations.ListTable.RegistrationDate",
            "formatter": "DateTimeFormatter",
            "formatString": "shortDate"
        },
        {
            "name":"semester",
            "title":"Students.semester"
        },
        {
            "name":"registrationPeriod/alternateName",
            "property" : "period",
            "title":"Labels.PeriodLabel",
            "formatter": "TranslationFormatter",
            "formatString": "Periods.${value}"
        },
        {
            "name":"registrationPeriod/id",
            "property" : "registrationPeriod",
            "hidden": true
        },
        {
            "name":"registrationYear/alternateName",
            "property" : "academicYear",
            "title" : "Labels.AcademicYear"
        },
        {
            "name":"registrationYear/id",
            "property" : "registrationYear",
            "hidden": true
        },
        {
          "name": "classes",
          "property": "classes",
          "virtual": true,
          "sortable": false,
          "title": "Courses.Title",
          "className": "text-center",
          "formatters": [
            {
              "formatter": "TemplateFormatter",
              "formatString": "${classes  && classes.length?'<span class=\"text-center\">' + classes[0].totalClasses + '</span>':'-'}"
            }
          ]
        },
        {
            "name":"status/alternateName",
            "property" : "status",
            "title":"Students.Status",
            "formatter": "TranslationFormatter",
            "formatString": "RegistrationStatus.${value}"
        }
    ],
    "defaults":{
      "filter": "(student/department eq ${currentDepartment} and registrationYear eq ${currentYear} and registrationPeriod eq ${currentPeriod})",
      "expand": "classes($select=count(courseClass) as totalClasses,registration;$groupby=registration), documents($select=count(id) as totalHistory, registration;$groupby=registration)",
      "groupBy": "id,student,student/studentIdentifier,student/person/givenName,student/person/familyName,student/studyProgram/abbreviation,registrationDate,semester,registrationPeriod/alternateName,registrationPeriod/id,registrationYear/alternateName,registrationYear/id,status/alternateName,student/studentStatus/alternateName"
    },
    "criteria" : [
        {
          "name": "studentIdentifier",
          "filter": "indexof(student/studentIdentifier, '${value}') ge 0",
          "type": "text"
        },
        {
          "name": "studentName",
          "filter": "(indexof(student/person/givenName, '${value}') ge 0 or indexof(student/person/familyName, '${value}') ge 0)",
          "type": "text"
        },
        {
          "name": "status",
          "filter": "(status/alternateName eq '${value}')",
          "type": "text"
        },
        {
          "name": "registrationDate",
          "filter": "(registrationDate eq '${value}')",
          "type": "text"
        },
        {
          "name": "registrationPeriod",
          "filter": "(registrationPeriod/alternateName eq '${value}')",
          "type": "text"
        },
        {
          "name": "semester",
          "filter": "(semester eq '${value}')",
          "type": "text"
        },
        {
          "name": "registrationYear",
          "filter": "(registrationYear eq '${value}')",
          "type": "text"
        },
        {
          "name": "studentStatus",
          "filter": "(student/studentStatus/alternateName eq '${value}')",
          "type": "text"
        },
        {
          "name": "studyProgram",
          "filter": "(student/studyProgram eq '${value}')",
          "type": "text"
        },
        {
          "name": "studyProgramSpecialty",
          "filter": "(student/studyProgramSpecialty eq '${value.id}')",
          "type": "text"
        },
        {
          "name": "hasClasses",
          "filter": "${value >=1 ? '(classes/id ne null)': '(classes/id eq null)'}",
          "type": "text"
        }
    ]
}
