{
	"model": "DepartmentSnapshots",
	"settings": {
		"i18n": {
			"el": {
        "Description": "Περιγραφή",
        "Create department history": "Δημιουργία ιστορικού τμήματος",
      	"Abbreviation": "Συντομογραφία",
        "Institute name": "Ονομασία ιδρύματος",
        "Academic period": "Ακαδημαϊκή περίοδος",
        "Set the academic period the changes refer to": "Ορίστε την περίοδο κατά την οποία έγιναν οι αλλαγές",
        "Set the academic year the changes refer to": "Ορίστε το έτος κατά το οποίο έγιναν οι αλλαγές",
        "Create department changes snapshot": "Δημιουργία ιστορικού αλλαγών τμήματος"
      }
		}
	},
	"components": [
    {
      "legend": "Create department changes snapshot",
      "key": "fieldSet",
      "type": "fieldset",
      "input": false
    },
		{

      "components": [
        {
          "components": [
            {
              "columns": [
                {
                  "components": [
                    {
                      "label": "Description",
                      "labelPosition": "top",
                      "widget": {
                        "type": "input"
                      },
                      "validate": {
                        "required": true
                      },
                      "key": "description",
                      "type": "textfield",
                      "input": true
                    }
                  ],
                  "width": 8
                },
                {
                  "components": [
                    {
                      "label": "Academic Year",
                      "labelPosition": "top",
                      "widget": "choicesjs",
                      "dataSrc": "url",
                      "searchFields": [
                        "value.id",
                        "value.alternateName"
                      ],
                      "data": {
                        "url": "AcademicYears?$top={{limit}}&$skip={{skip}}&$orderby=name desc",
                        "headers": []
                      },
                      "validate": {
                        "required": true
                      },
                      "limit": 15,
                      "template": "<span class='col-4 text-truncate'>{{ item.name }}</span>",
                      "selectValues": "value",
                      "key": "currentYear",
                      "searchEnabled": true,
                      "selectThreshold": 0.3,
                      "type": "select",
                      "input": true,
                      "lazyLoad": true,
                      "description": "Set the academic year the changes refer to"
                    }
                  ],
                  "width": 6
                },
                {
                  "components": [
                    {
                      "label": "Academic period",
                      "labelPosition": "top",
                      "widget": "choicesjs",
                      "dataSrc": "url",
                      "searchFields": [
                        "value.id",
                        "value.alternateName"
                      ],
                      "data": {
                        "url": "AcademicPeriods?$top={{limit}}&$skip={{skip}}&$orderby=name desc",
                        "headers": []
                      },
                      "validate": {
                        "required": true
                      },
                      "limit": 15,
                      "template": "<span class='col-4 text-truncate'>{{ item.name }}</span>",
                      "selectValues": "value",
                      "key": "currentPeriod",
                      "selectThreshold": 0.3,
                      "type": "select",
                      "input": true,
                      "lazyLoad": true,
                      "description": "Set the academic period the changes refer to"
                    }
                  ],
                  "width": 6
                },
                {
                  "components": [
                    {
                      "label": "Department Name",
                      "labelPosition": "top",
                      "widget": {
                        "type": "input"
                      },
                      "validate": {
                        "required": true
                      },
                      "key": "name",
                      "type": "textfield",
                      "input": true

                    }
                  ],
                  "width": 12
                },
                {
                  "components": [
                    {
                      "label": "Faculty Name",
                      "labelPosition": "top",
                      "widget": "choicesjs",
                      "dataSrc": "url",
                      "searchFields": [
                        "id"
                      ],
                      "selectThreshold": 0.3,
                      "selectValues": "value",
                      "key": "facultyName",
                      "type": "textfield",
                      "input": true

                    }
                  ],
                  "width": 12
                }
              ],
              "customClass": "text-dark",
              "hideLabel": true,
              "type": "columns",
              "input": false
            },
            {
              "columns": [
                {
                  "components": [
                    {
                      "label": "Institute name",
                      "labelPosition": "top",
                      "widget": {
                        "type": "input"
                      },
                      "validate": {
                        "required": true
                      },
                      "key": "instituteName",
                      "type": "textfield",
                      "input": true
                    }
                  ],
                  "width": 12
                }


              ],
              "customClass": "text-dark",
              "type": "columns",
              "input": false
            }
          ]
        },
        {

          "components": [
            {
              "columns": [
                {
                  "components": [
                    {
                      "label": "Notes",
                      "labelPosition": "top",
                      "widget": {
                        "type": "input"
                      },
                      "validate": {
                        "required": false
                      },
                      "key": "notes",
                      "type": "textarea",
                      "input": true
                    }
                  ],
                  "width": 12,
                  "offset": 0,
                  "push": 0,
                  "pull": 0
                }
              ],
              "customClass": "text-dark",
              "type": "columns",
              "input": false
            }
          ]
        }
      ]
		}


	]
}
