{
  "settings": {
    "i18n": {
    }
  },
  "components": [
    {
      "label": "HTML",
      "content": "<h5>{{instance.t('StudentAttributeRuleTitle')}}</h5><p class=\"text-secondary\">{{instance.t('StudentAttributeRuleDescription')}}</p>",
      "refreshOnChange": false,
      "key": "html",
      "type": "htmlelement",
      "input": false,
      "tableView": false,
      "customConditional": "show = (data.$state != 4)"
    },
    {
      "label": "refersTo",
      "hidden": true,
      "disabled": true,
      "tableView": true,
      "defaultValue": "Student",
      "clearOnHide": false,
      "key": "refersTo",
      "type": "textfield",
      "input": true
    },
    {
      "label": "HTML",
      "content": "<h5 class=\"text-secondary\"><del>{{instance.t('StudentAttributeRuleTitle')}}</del></h5><p class=\"text-secondary\"><del>{{instance.t('StudentAttributeRuleDescription')}}</del></p>",
      "refreshOnChange": false,
      "key": "html",
      "type": "htmlelement",
      "input": false,
      "tableView": false,
      "customConditional": "show = (data.$state == 4)"
    },
    {
      "label": "Columns",
      "columns": [
        {
          "components": [
            {
              "label": "RuleAttribute",
              "widget": "choicesjs",
              "description": "SetRuleAttribute",
              "tableView": true,
              "validate": {
                "required": true
              },
              "data": {
                "values": [
                  {
                    "label": "category",
                    "value": "category"
                  },
                  {
                    "label": "studentStatus",
                    "value": "studentStatus"
                  },
                  {
                    "label": "department",
                    "value": "department"
                  },
                  {
                    "label": "semester",
                    "value": "semester"
                  },
                  {
                    "label": "person/givenName",
                    "value": "person/givenName"
                  },
                  {
                    "label": "inscriptionSemester",
                    "value": "inscriptionSemester"
                  },
                  {
                    "label": "inscriptionMode",
                    "value": "inscriptionMode"
                  },
                  {
                    "label": "inscriptionPeriod",
                    "value": "inscriptionPeriod"
                  },
                  {
                    "label": "inscriptionPoints",
                    "value": "inscriptionPoints"
                  },
                  {
                    "label": "inscriptionYear",
                    "value": "inscriptionYear"
                  },
                  {
                    "label": "person/familyName",
                    "value": "person/familyName"
                  },
                  {
                    "label": "graduationPeriod",
                    "value": "graduationPeriod"
                  },
                  {
                    "label": "graduationGrade",
                    "value": "graduationGrade"
                  },
                  {
                    "label": "graduationYear",
                    "value": "graduationYear"
                  },
                  {
                    "label": "studyProgram",
                    "value": "studyProgram"
                  },
                  {
                    "label": "inscriptionIndex",
                    "value": "inscriptionIndex"
                  },
                  {
                    "label": "specialty",
                    "value": "specialty"
                  },
                  {
                    "label": "person/gender",
                    "value": "person/gender"
                  },
                  {
                    "label": "rate",
                    "value": "rate"
                  },
                  {
                    "label": "inscriptionRetroPeriod",
                    "value": "inscriptionRetroPeriod"
                  },
                  {
                    "label": "inscriptionRetroYear",
                    "value": "inscriptionRetroYear"
                  }
                ]
              },
              "selectThreshold": 0.3,
              "lazyLoad": false,
              "key": "attribute",
              "defaultValue": "semester",
              "type": "select",
              "input": true,
              "hideOnChildrenHidden": false
            }
          ],
          "width": 4,
          "offset": 0,
          "push": 0,
          "pull": 0,
          "size": "md"
        },
        {
          "components": [
            {
              "label": "RuleOperator",
              "description": "SetRuleOperator",
              "labelPosition": "top",
              "widget": "choicesjs",
              "validate": {
                "required": true
              },
              "dataSrc": "json",
              "data": {
                "json": [
                  {
                    "id": 1,
                    "name": "%s must be equal to %s",
                    "alternateName": "equal"
                  },
                  {
                    "id": 2,
                    "name": "%s must contain '%s",
                    "alternateName": "contains"
                  },
                  {
                    "id": 3,
                    "name": "%s must be different from %s",
                    "alternateName": "notEqual"
                  },
                  {
                    "id": 4,
                    "name": "%s must be greater than %s",
                    "alternateName": "greaterThan"
                  },
                  {
                    "id": 5,
                    "name": "%s must be lower than %s",
                    "alternateName": "lowerThan"
                  },
                  {
                    "id": 6,
                    "name": "%s must be between %s and %s",
                    "alternateName": "between"
                  },
                  {
                    "id": 7,
                    "name": "%s must start with '%s'",
                    "alternateName": "startsWith"
                  },
                  {
                    "id": 8,
                    "name": "%s must not contain '%s'",
                    "alternateName": "notContains"
                  },
                  {
                    "id": 9,
                    "name": "%s must be greater or equal to %s",
                    "alternateName": "greaterOrEqual"
                  },
                  {
                    "id": 10,
                    "name": "%s must be lower or equal to %s",
                    "alternateName": "lowerOrEqual"
                  }
                ]
              },
              "template": "<span class='d-block pr-5 text-truncate'>{{ item.alternateName }}</span>",
              "selectValues": "value",
              "key": "ruleOperator",
              "defaultValue": "4",
              "valueProperty": "id",
              "lazyLoad": false,
              "type": "select",
              "input": true,
              "logic": [
                {
                  "name": "disableLogic",
                  "trigger": {
                    "type": "simple",
                    "simple": {
                      "show": true,
                      "when": "$state",
                      "eq": 4
                    }
                  },
                  "actions": [
                    {
                      "name": "disableAction",
                      "type": "property",
                      "property": {
                        "label": "Disabled",
                        "value": "disabled",
                        "type": "boolean"
                      },
                      "state": true
                    }
                  ]
                }
              ]
            }
          ],
          "width": 4,
          "offset": 0,
          "push": 0,
          "pull": 0,
          "size": "md"
        },
        {
          "components": [
            {
              "label": "RuleValue1",
              "description": "SetRuleValue1",
              "tableView": true,
              "validate": {
                "required": true
              },
              "key": "value1",
              "type": "textfield",
              "input": true,
              "hideOnChildrenHidden": false,
              "redrawOn": "attribute",
              "clearOnHide": true,
              "customConditional": "show = (data && data.target && data.target.dropdownDefinitions && data.target.dropdownDefinitions.get(data.attribute) == null)"
            }
          ],
          "size": "md",
          "width": 4,
          "offset": 0,
          "push": 0,
          "pull": 0
        },
        {
          "components": [
            {
              "label": "RuleValue2",
              "description": "SetRuleValue2",
              "tableView": true,
              "validate": {
                "required": true
              },
              "key": "value2",
              "type": "textfield",
              "input": true,
              "hideOnChildrenHidden": false,
              "clearOnHide": true,
              "customConditional": "show =(data.ruleOperator === 6)"
            }
          ],
          "size": "md",
          "width": 4,
          "offset": 0,
          "push": 0,
          "pull": 0
        },
        {
          "components": [
            {
              "label": "RuleValue1",
              "description": "SetRuleValue1",
              "widget": "choicesjs",
              "dataSrc": "url",
              "data": {
                "url": "{{data.target.dropdownDefinitions.get(data.attribute).url}}",
                "headers": []
              },
              "validate": {
                "required": true
              },
              "template": "<span class='d-block pr-5 text-truncate'>{{ item.name }}</span>",
              "key": "value1",
              "valueProperty": "id",
              "selectValues": "value",
              "searchEnabled": false,
              "type": "select",
              "input": true,
              "lazyLoad": false,
              "redrawOn": "attribute",
              "searchFields": ["id", "name"],
              "clearOnHide": true,
              "clearOnRefresh": true,
              "customConditional": "show = (data && data.target && data.target.dropdownDefinitions && data.target.dropdownDefinitions.get(data.attribute) != null);"
            }
          ],
          "width": 6,
          "offset": 0,
          "push": 0,
          "pull": 0
        }
      ],
      "key": "columns",
      "type": "columns",
      "input": false,
      "tableView": false
    },
    {
      "type": "button",
      "action": "event",
      "label": "RemoveRule",
      "event": "remove",
      "key": "remove",
      "theme": "danger",
      "disableOnInvalid": false,
      "input": true,
      "tableView": false
    }
  ]
}
