{
    "columns": [
        {
            "name": "name",
            "title": "Settings.Attributes.name"
        },
        {
            "name": "description",
            "title": "Settings.Attributes.description"
        },
        {
            "name": "alternateName",
            "title": "Settings.Attributes.alternateName"
        },
        {
            "name": "mimeType",
            "title": "Settings.Lists.MediaType.MimeType"
        },
        {
            "name": "extension",
            "title": "Settings.Lists.MediaType.Extension"
        },
        {
            "name": "id",
            "formatter": "ButtonFormatter",
            "formatString":"(modal:edit)",
            "className": "text-center",
            "formatOptions": {
                "buttonContent": "<i class=\"far fa-edit text-indigo\"></i>",
                "buttonClass": "btn btn-default"
            }
        }
    ]
}